﻿ 2021-06-27 15:22:33,199 [P12032/D2/T1] INFO  Umbraco.Core.CoreBootManager - Umbraco 7.12.3 application starting on LAPTOP-AO3BH3C6
 2021-06-27 15:22:33,215 [P12032/D2/T1] INFO  Umbraco.Core.PluginManager - Determining hash of code files on disk
 2021-06-27 15:22:33,248 [P12032/D2/T1] INFO  Umbraco.Core.PluginManager - Hash determined (took 32ms)
 2021-06-27 15:22:33,294 [P12032/D2/T1] INFO  Umbraco.Core.MainDom - Acquiring MainDom...
 2021-06-27 15:22:33,296 [P12032/D2/T1] INFO  Umbraco.Core.MainDom - Acquired MainDom.
 2021-06-27 15:22:33,298 [P12032/D2/T1] INFO  Umbraco.Core.PluginManager - Resolving umbraco.interfaces.IDiscoverable
 2021-06-27 15:22:33,710 [P12032/D2/T1] INFO  Umbraco.Core.PluginManager - Resolved umbraco.interfaces.IDiscoverable (took 412ms)
 2021-06-27 15:22:33,710 [P12032/D2/T1] INFO  Umbraco.Core.PluginManager - Resolving umbraco.interfaces.IApplicationStartupHandler
 2021-06-27 15:22:33,714 [P12032/D2/T1] INFO  Umbraco.Core.PluginManager - Resolved umbraco.interfaces.IApplicationStartupHandler (took 3ms)
 2021-06-27 15:22:33,728 [P12032/D2/T1] INFO  Umbraco.Core.PluginManager - Resolving umbraco.interfaces.IDiscoverable
 2021-06-27 15:22:33,729 [P12032/D2/T1] INFO  Umbraco.Core.PluginManager - Resolved umbraco.interfaces.IDiscoverable (took 0ms)
 2021-06-27 15:22:33,729 [P12032/D2/T1] INFO  Umbraco.Core.PluginManager - Resolving Umbraco.Core.PropertyEditors.IPropertyEditorValueConverter
 2021-06-27 15:22:33,732 [P12032/D2/T1] INFO  Umbraco.Core.PluginManager - Resolved Umbraco.Core.PropertyEditors.IPropertyEditorValueConverter (took 2ms)
 2021-06-27 15:22:33,733 [P12032/D2/T1] INFO  Umbraco.Core.PluginManager - Resolving umbraco.interfaces.IDiscoverable
 2021-06-27 15:22:33,733 [P12032/D2/T1] INFO  Umbraco.Core.PluginManager - Resolved umbraco.interfaces.IDiscoverable (took 0ms)
 2021-06-27 15:22:33,733 [P12032/D2/T1] INFO  Umbraco.Core.PluginManager - Resolving Umbraco.Core.PropertyEditors.IPropertyValueConverter
 2021-06-27 15:22:33,736 [P12032/D2/T1] INFO  Umbraco.Core.PluginManager - Resolved Umbraco.Core.PropertyEditors.IPropertyValueConverter (took 2ms)
 2021-06-27 15:22:33,749 [P12032/D2/T1] INFO  Umbraco.Core.PluginManager - Resolving umbraco.interfaces.IDiscoverable
 2021-06-27 15:22:33,749 [P12032/D2/T1] INFO  Umbraco.Core.PluginManager - Resolved umbraco.interfaces.IDiscoverable (took 0ms)
 2021-06-27 15:22:33,750 [P12032/D2/T1] INFO  Umbraco.Core.PluginManager - Resolving Umbraco.Web.Mvc.SurfaceController
 2021-06-27 15:22:33,752 [P12032/D2/T1] INFO  Umbraco.Core.PluginManager - Resolved Umbraco.Web.Mvc.SurfaceController (took 2ms)
 2021-06-27 15:22:33,753 [P12032/D2/T1] INFO  Umbraco.Core.PluginManager - Resolving umbraco.interfaces.IDiscoverable
 2021-06-27 15:22:33,753 [P12032/D2/T1] INFO  Umbraco.Core.PluginManager - Resolved umbraco.interfaces.IDiscoverable (took 0ms)
 2021-06-27 15:22:33,753 [P12032/D2/T1] INFO  Umbraco.Core.PluginManager - Resolving Umbraco.Web.WebApi.UmbracoApiController
 2021-06-27 15:22:33,755 [P12032/D2/T1] INFO  Umbraco.Core.PluginManager - Resolved Umbraco.Web.WebApi.UmbracoApiController (took 2ms)
 2021-06-27 15:22:35,942 [P12032/D2/T1] INFO  Umbraco.Core.DatabaseContext - CanConnect = True
 2021-06-27 15:22:37,239 [P12032/D2/T1] INFO  Umbraco.Web.Cache.CacheRefresherEventHandler - Initializing Umbraco internal event handlers for cache refreshing
 2021-06-27 15:22:37,663 [P12032/D2/T1] INFO  Umbraco.Web.Search.ExamineEvents - Initializing Examine and binding to business logic events
 2021-06-27 15:22:37,664 [P12032/D2/T1] INFO  Umbraco.Web.Search.ExamineEvents - Adding examine event handlers for index providers: 3
 2021-06-27 15:22:38,360 [P12032/D2/T1] WARN  Umbraco.Core.Sync.DatabaseServerMessenger - No last synced Id found, this generally means this is a new server/install. The server will build its caches and indexes, and then adjust its last synced Id to the latest found in the database and maintain cache updates based on that Id.
 2021-06-27 15:22:39,076 [P12032/D2/T1] INFO  umbraco.content - Load Xml from file...
 2021-06-27 15:22:39,077 [P12032/D2/T1] WARN  umbraco.content - Failed to load Xml, file does not exist.
 2021-06-27 15:22:39,078 [P12032/D2/T1] INFO  umbraco.content - Loading content from database...
